Data Harvesting Project
…
Now it is time to continue our analysis of sentiment:

Bucle <- req |> 
  req_url_path_append(paste("playlists", En_Bucle, sep = "/")) |> 
  req_perform() |> 
  resp_body_json(simplifyVector = TRUE)

Bucle <- Bucle$track$items |> 
  select(track)  |>  
  unnest(track) |> 
  select(c(artists,album, name, id, explicit, duration_ms, popularity, href))
Bucle 

# A tibble: 30 × 8
   artists album$available_markets name    id    explicit duration_ms popularity
   <list>  <list>                  <chr>   <chr> <lgl>          <int>      <int>
 1 <df>    <chr [185]>             La Sal… 0txz… FALSE         263942         67
 2 <df>    <chr [185]>             El Nano 5X7z… FALSE         169160         54
 3 <df>    <chr [185]>             La Inc… 47nn… FALSE         289140         56
 4 <df>    <chr [185]>             El Pri… 6tZI… FALSE         147907         68
 5 <df>    <chr [185]>             La Mad… 3l8E… FALSE         191346         63
 6 <df>    <chr [185]>             Dale    5JnA… FALSE         164181         43
 7 <df>    <chr [185]>             Podría… 7Eh2… FALSE         253014         51
 8 <df>    <chr [185]>             Que El… 1ogJ… FALSE         235493         51
 9 <df>    <chr [184]>             El Año  64q2… FALSE         147133         31
10 <df>    <chr [185]>             Aquell… 1070… FALSE         289626         56
# ℹ 20 more rows
# ℹ 13 more variables: album$type <chr>, $album_type <chr>, $href <chr>,
#   $id <chr>, $images <list>, $name <chr>, $release_date <chr>,
#   $release_date_precision <chr>, $uri <chr>, $artists <list>,
#   $external_urls <df[,1]>, $total_tracks <int>, href <chr>
…
As can be observed, we have information on the top 30 most listened to songs, which is why we have 30 rows, one for each song. Our aim is to gather information strictly related to the track itself, excluding details about the thumbnail or the uploader. Therefore, we will choose the track field and proceed to expand it, revealing the contained details.

We have also saved the Bucle_Id for what we’ll see later on.

However, we still retain some dataframes like those of the artist or album. Let’s work with that…

Buclefiltered_1 <- Bucle |> 
  unnest(artists, names_sep = "_") |> 
  select(artist_name = artists_name, name) |> 
  distinct(name, .keep_all = TRUE) |> 
  group_by(name, artist_name)

Buclefiltered_1

# A tibble: 30 × 2
# Groups:   name, artist_name [30]
   artist_name       name                                                       
   <chr>             <chr>                                                      
 1 Arde Bogotá       La Salvación                                               
 2 Melendi           El Nano                                                    
 3 IZAL              La Increíble Historia del Hombre Que Podía Volar Pero No S…
 4 La La Love You    El Principio de algo                                       
 5 El Canto Del Loco La Madre de Jose                                           
 6 Pole.             Dale                                                       
 7 La Casa Azul      Podría Ser Peor                                            
 8 Carlos Sadness    Que Electricidad                                           
 9 Carolina Durante  El Año                                                     
10 Benito Kamelas    Aquellas Cosas Que Solíamos Hacer                          
# ℹ 20 more rows
…
En_Bucle_feelings <- data.frame()

for(i in 1:length(unique(Buclesongs))) { 
  Sys.sleep(2)
  Buclesong <- req |>  
  req_url_path_append(paste("audio-features", unique(Buclesongs)[i], sep = "/")) |>  
  req_perform() |>  
  resp_body_json(simplifyVector = TRUE) |>  
  as_tibble()
  
  En_Bucle_feelings <- rbind(Buclesong, En_Bucle_feelings)
} 
En_Bucle_feelings

# A tibble: 30 × 18
   danceability energy   key loudness  mode speechiness acousticness
          <dbl>  <dbl> <int>    <dbl> <int>       <dbl>        <dbl>
 1        0.56   0.939     5    -1.95     0      0.0546     0.000269
 2        0.72   0.435     0    -6.65     1      0.346      0.337   
 3        0.687  0.851     1    -3.41     0      0.0409     0.0977  
 4        0.72   0.722     6    -5.06     0      0.0478     0.0277  
 5        0.705  0.674     1    -7.24     1      0.131      0.0499  
 6        0.821  0.594     2    -5.60     1      0.316      0.403   
 7        0.823  0.605     5    -6.60     0      0.0663     0.0491  
 8        0.447  0.596    10    -9.55     0      0.0395     0.000633
 9        0.664  0.839     9    -5.66     0      0.0375     0.00657 
10        0.807  0.838    10    -8.41     0      0.0885     0.199   
# ℹ 20 more rows
# ℹ 11 more variables: instrumentalness <dbl>, liveness <dbl>, valence <dbl>,
#   tempo <dbl>, type <chr>, id <chr>, uri <chr>, track_href <chr>,
#   analysis_url <chr>, duration_ms <int>, time_signature <int>
The problem with doing this code is that we lose the name of the songs. Although there is a solution for this, to make everything much clearer we are going to make a full_join to join the two dataframes.

Bucle_full <- Bucle_final |>  
  full_join(En_Bucle_feelings, by = "id") |>  
  select(name, album_name, everything()) |>  
  mutate(duration = duration_ms / 1000) |>  
  select(-duration_ms)

Bucle_full <- Bucle_full |> 
  ungroup() |> 
  mutate(Position = row_number())

Bucle_full

# A tibble: 30 × 23
   name        album_name artist_name id    popularity danceability energy   key
   <chr>       <chr>      <chr>       <chr>      <int>        <dbl>  <dbl> <int>
 1 La Salvaci… COWBOYS D… Arde Bogotá 0txz…         67        0.505  0.688    11
 2 El Nano     El Nano    Melendi     5X7z…         54        0.646  0.96      5
 3 La Increíb… Autoterap… IZAL        47nn…         56        0.548  0.838    11
 4 El Princip… Blockbust… La La Love… 6tZI…         68        0.615  0.914     6
 5 La Madre d… Estados d… El Canto D… 3l8E…         63        0.629  0.937     1
 6 Dale        Dale       Pole.       5JnA…         43        0.818  0.808     2
 7 Podría Ser… La Gran E… La Casa Az… 7Eh2…         51        0.662  0.909     5
 8 Que Electr… La Idea S… Carlos Sad… 1ogJ…         51        0.518  0.899     0
 9 El Año      Carolina … Carolina D… 64q2…         31        0.444  0.942     9
10 Aquellas C… Sin Tramp… Benito Kam… 1070…         56        0.554  0.844     0
# ℹ 20 more rows
# ℹ 15 more variables: loudness <dbl>, mode <int>, speechiness <dbl>,
#   acousticness <dbl>, instrumentalness <dbl>, liveness <dbl>, valence <dbl>,
#   tempo <dbl>, type <chr>, uri <chr>, track_href <chr>, analysis_url <chr>,
#   time_signature <int>, duration <dbl>, Position <int>
…
} 

Warning: `as.tibble()` was deprecated in tibble 2.0.0.
ℹ Please use `as_tibble()` instead.
ℹ The signature and semantics have changed, see `?as_tibble`.

top50espsongs

# A tibble: 50 × 18
   danceability energy   key loudness  mode speechiness acousticness
          <dbl>  <dbl> <int>    <dbl> <int>       <dbl>        <dbl>
 1        0.704  0.571     7    -8.21     0      0.156         0.588
 2        0.472  0.471    10    -5.69     1      0.0603        0.151
 3        0.77   0.907     0    -4.68     0      0.215         0.427
 4        0.794  0.683     1    -4.9      1      0.0603        0.47 
 5        0.714  0.718     0    -3.89     0      0.0943        0.538
 6        0.813  0.866     7    -3.24     1      0.0851        0.17 
 7        0.616  0.673     2    -3.95     1      0.0327        0.563
 8        0.668  0.807     7    -6.15     0      0.186         0.675
 9        0.659  0.655     1    -7.42     0      0.0805        0.167
10        0.711  0.752     7    -7.57     0      0.2           0.191
# ℹ 40 more rows
# ℹ 11 more variables: instrumentalness <dbl>, liveness <dbl>, valence <dbl>,
#   tempo <dbl>, type <chr>, id <chr>, uri <chr>, track_href <chr>,
#   analysis_url <chr>, duration_ms <int>, time_signature <int>

We already have the sentiments of the top 50 songs in Spain at the moment. However, the table does not show the names of the songs. Let’s show who each song belongs to.

top50españa <- top50españa |>  
  select(c(name, id))

top50espdfull <- top50españa |>  
  full_join(top50espsongs, by = "id") |>  
  mutate(Position = row_number(), 
         playlist = "TOP 50") |>  
  select(c(name, Position, danceability, energy, key, loudness, speechiness, acousticness, instrumentalness, liveness, valence, tempo, playlist))

top50espdfull 

# A tibble: 50 × 13
   name     Position danceability energy   key loudness speechiness acousticness
   <chr>       <int>        <dbl>  <dbl> <int>    <dbl>       <dbl>        <dbl>
 1 Santa           1        0.725  0.709     3    -5.02      0.129        0.321 
 2 YO LO S…        2        0.499  0.682     6    -3.60      0.18         0.427 
 3 Gata On…        3        0.791  0.499     8    -8.47      0.0509       0.446 
 4 X'CLUSI…        4        0.813  0.552     6    -6.33      0.0769       0.0702
 5 El Conj…        5        0.688  0.73      5    -6.87      0.0638       0.386 
 6 LA SEVI…        6        0.445  0.769    10    -3.48      0.0476       0.0557
 7 BBY BOO…        7        0.703  0.617     5    -5.70      0.151        0.215 
 8 Guay            8        0.88   0.766     1    -2.91      0.0505       0.0881
 9 LA RANG…        9        0.827  0.677     9    -6.34      0.072        0.0529
10 Lo Que …       10        0.757  0.768     1    -5.13      0.0379       0.345 
# ℹ 40 more rows
# ℹ 5 more variables: instrumentalness <dbl>, liveness <dbl>, valence <dbl>,
#   tempo <dbl>, playlist <chr>

We make both dataframes the same format and join them together.

Bucle_full <- Bucle_full |> 
  select(c(name, Position, danceability, energy, key, loudness, speechiness, acousticness, instrumentalness, liveness, valence, tempo)) |> 
  mutate(playlist = "En Bucle")

top50espdfull <- top50espdfull |> 
  filter( Position <= 30) 

final_df_songs <- rbind(Bucle_full,top50espdfull)
final_df_songs

# A tibble: 60 × 13
   name     Position danceability energy   key loudness speechiness acousticness
   <chr>       <int>        <dbl>  <dbl> <int>    <dbl>       <dbl>        <dbl>
 1 La Salv…        1        0.505  0.688    11    -5.56      0.0333      0.0264 
 2 El Nano         2        0.646  0.96      5    -2.90      0.0605      0.00739
 3 La Incr…        3        0.548  0.838    11    -5.68      0.161       0.0761 
 4 El Prin…        4        0.615  0.914     6    -3.79      0.0518      0.0155 
 5 La Madr…        5        0.629  0.937     1    -2.84      0.115       0.293  
 6 Dale            6        0.818  0.808     2    -4.11      0.0531      0.0165 
 7 Podría …        7        0.662  0.909     5    -5.00      0.0407      0.0498 
 8 Que Ele…        8        0.518  0.899     0    -6.47      0.0974      0.0509 
 9 El Año          9        0.444  0.942     9    -2.76      0.0454      0.0127 
10 Aquella…       10        0.554  0.844     0    -6.10      0.0563      0.0337 
# ℹ 50 more rows
# ℹ 5 more variables: instrumentalness <dbl>, liveness <dbl>, valence <dbl>,
#   tempo <dbl>, playlist <chr>
…
for(i in 1:length(unique(Rosalia_id))) { 
  
  song <- req |>  
  req_url_path_append(paste("audio-features", unique(Rosalia_id)[i], sep = "/")) |>  
  req_perform() |>  
  resp_body_json(simplifyVector = TRUE) |>  
  as.tibble()
  
  Rosalia_feelings <- rbind(song, Rosalia_feelings)
} 
Rosalia_feelings

# A tibble: 43 × 18
   danceability energy   key loudness  mode speechiness acousticness
          <dbl>  <dbl> <int>    <dbl> <int>       <dbl>        <dbl>
 1        0.486  0.15      7   -13.2      1      0.0389        0.945
 2        0.257  0.367     5    -8.02     0      0.0307        0.739
 3        0.411  0.117     6   -11.7      1      0.0322        0.961
 4        0.426  0.436     5    -6.78     1      0.0332        0.817
 5        0.465  0.175     3   -11.1      1      0.093         0.969
 6        0.402  0.196    10    -8.62     0      0.036         0.859
 7        0.539  0.153     4    -8.70     1      0.0333        0.978
 8        0.271  0.156     7   -11.2      1      0.0348        0.964
 9        0.441  0.267     6    -9.64     0      0.0583        0.921
10        0.309  0.315     7   -12.0      1      0.0378        0.977
# ℹ 33 more rows
# ℹ 11 more variables: instrumentalness <dbl>, liveness <dbl>, valence <dbl>,
#   tempo <dbl>, type <chr>, id <chr>, uri <chr>, track_href <chr>,
#   analysis_url <chr>, duration_ms <int>, time_signature <int>
…
